Electronicos Lab 1/Electronicos Lab 1/Experimental2/SDS00003.CSV

Record Length,10000,,Source,CH1,CH2
Sample Interval,CH1:0.0000799999980 CH2:0.0000799999980,,Second,Volt,Volt
Vertical Units,CH1:V CH2:V,,-0.39999997616,-1.80000,-2.20000
Vertical Scale,CH1:5.00 CH2:5.00,,-0.39991998672,-2.00000,-2.20000
Vertical Offset,CH1:9.80000 CH2:-10.10000,,-0.39983999729,-2.00000,-2.20000
Horizontal Units,s,,-0.39975997806,-1.80000,-2.20000
Horizontal Scale,0.0500000007,,-0.39967998862,-2.00000,-2.20000
Model Number,SDS1102CML+,,-0.39959999919,-2.00000,-2.20000
Serial Number,SDS1MDBQ1R6022,,-0.39951997995,-1.80000,-2.20000
Software Version,6.01.01.19,,-0.39943999052,-1.80000,-2.20000
,,,-0.39936000109,-2.00000,-2.00000
,,,-0.39927998185,-1.80000,-2.20000
,,,-0.39919999242,-2.00000,-2.00000
,,,-0.39912000299,-1.80000,-2.20000
,,,-0.39903998375,-1.80000,-2.20000
,,,-0.39895999432,-2.00000,-2.20000
,,,-0.39887997508,-2.00000,-2.20000
,,,-0.39879998565,-1.80000,-2.20000
,,,-0.39871999621,-1.80000,-2.20000
,,,-0.39863997698,-2.00000,-2.40000
,,,-0.39855998755,-1.40000,-2.20000
,,,-0.39847999811,-1.60000,-2.40000
,,,-0.39839997888,-1.80000,-2.20000
,,,-0.39831998944,-1.60000,-2.20000
,,,-0.39824000001,-1.80000,-2.20000
,,,-0.39815998077,-1.80000,-2.20000
,,,-0.39807999134,-1.60000,-2.00000
,,,-0.39800000191,-1.40000,-2.00000
,,,-0.39791998267,-1.40000,-2.20000
,,,-0.39783999324,-1.60000,-2.00000
,,,-0.39776000381,-1.60000,-2.20000
,,,-0.39767998457,-1.40000,-2.00000
,,,-0.39759999514,-1.40000,-1.80000
,,,-0.39751997590,-1.40000,-2.00000
,,,-0.39743998647,-1.60000,-2.00000
,,,-0.39735999703,-1.20000,-1.80000
,,,-0.39727997780,-1.40000,-2.00000
,,,-0.39719998837,-1.40000,-1.80000
,,,-0.39711999893,-1.20000,-2.00000
,,,-0.39703997970,-1.20000,-1.80000
,,,-0.39695999026,-1.20000,-1.60000
,,,-0.39688000083,-1.00000,-1.80000
,,,-0.39679998159,-1.00000,-1.80000
,,,-0.39671999216,-1.20000,-1.60000
,,,-0.39664000273,-1.00000,-1.80000
,,,-0.39655998349,-0.80000,-1.60000
,,,-0.39647999406,-1.00000,-1.60000
,,,-0.39640000463,-0.60000,-1.80000
,,,-0.39631998539,-1.00000,-1.60000
,,,-0.39623999596,-1.00000,-1.60000
,,,-0.39615997672,-1.20000,-1.80000
,,,-0.39607998729,-0.60000,-1.60000
,,,-0.39599999785,-0.60000,-1.40000
,,,-0.39591997862,-0.80000,-1.40000
,,,-0.39583998919,-0.60000,-1.40000
,,,-0.39575999975,-0.20000,-1.40000
,,,-0.39567998052,-0.40000,-1.40000
,,,-0.39559999108,-0.40000,-1.40000
,,,-0.39552000165,-0.40000,-1.20000
,,,-0.39543998241,-0.20000,-1.40000
,,,-0.39535999298,-0.40000,-1.40000
,,,-0.39528000355,0.00,-1.20000
,,,-0.39519998431,-0.20000,-1.20000
,,,-0.39511999488,-0.20000,-1.00000
,,,-0.39503997564,0.00,-1.20000
,,,-0.39495998621,0.00,-1.00000
,,,-0.39487999678,0.00,-1.00000
,,,-0.39479997754,0.40000,-1.00000
,,,-0.39471998811,0.00,-0.60000
,,,-0.39463999867,0.40000,-0.80000
,,,-0.39455997944,0.20000,-0.80000
,,,-0.39447999001,0.20000,-0.80000
,,,-0.39440000057,0.00,-0.80000
,,,-0.39431998134,0.20000,-0.60000
,,,-0.39423999190,0.40000,-0.60000
,,,-0.39416000247,0.40000,-0.60000
,,,-0.39407998323,0.40000,-0.60000
,,,-0.39399999380,0.40000,-0.60000
,,,-0.39392000437,0.60000,-0.40000
,,,-0.39383998513,0.40000,-0.20000
,,,-0.39375999570,0.40000,-0.40000
,,,-0.39367997646,0.60000,-0.20000
,,,-0.39359998703,0.80000,-0.20000
,,,-0.39351999760,1.00000,-0.20000
,,,-0.39343997836,1.00000,-0.20000
,,,-0.39335998893,0.80000,-0.20000
,,,-0.39327999949,0.80000,0.00
,,,-0.39319998026,1.00000,-0.20000
,,,-0.39311999083,1.00000,-0.20000
,,,-0.39304000139,1.20000,0.00
,,,-0.39295998216,1.00000,-0.20000
,,,-0.39287999272,1.00000,0.20000
,,,-0.39280000329,1.20000,0.20000
,,,-0.39271998405,1.20000,0.20000
,,,-0.39263999462,1.00000,0.20000
,,,-0.39255997539,1.20000,0.20000
,,,-0.39247998595,1.00000,0.40000
,,,-0.39239999652,1.60000,0.20000
,,,-0.39231997728,1.20000,0.40000
,,,-0.39223998785,1.40000,0.40000
,,,-0.39215999842,1.40000,0.20000
,,,-0.39207997918,1.20000,0.60000
,,,-0.39199998975,1.60000,0.40000
,,,-0.39192000031,1.40000,0.60000
,,,-0.39183998108,1.40000,0.40000
,,,-0.39175999165,1.60000,0.80000
,,,-0.39168000221,1.20000,0.60000
,,,-0.39159998298,1.40000,0.60000
,,,-0.39151999354,1.80000,0.60000
,,,-0.39144000411,1.40000,0.80000
,,,-0.39135998487,1.60000,0.80000
,,,-0.39127999544,1.80000,0.80000
,,,-0.39119997621,1.60000,0.80000
,,,-0.39111998677,1.80000,1.00000
,,,-0.39103999734,1.40000,0.80000
,,,-0.39095997810,1.60000,0.80000
,,,-0.39087998867,1.60000,0.80000
,,,-0.39079999924,1.60000,1.00000
,,,-0.39071998000,1.80000,1.00000
,,,-0.39063999057,1.60000,1.00000
,,,-0.39056000113,1.80000,1.00000
,,,-0.39047998190,1.80000,0.80000
,,,-0.39039999247,1.80000,1.00000
,,,-0.39032000303,1.80000,1.20000
,,,-0.39023998380,1.80000,1.60000
,,,-0.39015999436,1.60000,1.20000
,,,-0.39008000493,1.60000,1.20000
,,,-0.38999998569,1.80000,1.00000
,,,-0.38991999626,1.40000,1.20000
,,,-0.38983997703,1.80000,1.00000
,,,-0.38975998759,1.60000,1.00000
,,,-0.38967999816,2.00000,1.20000
,,,-0.38959997892,1.60000,1.00000
,,,-0.38951998949,1.80000,1.00000
,,,-0.38944000006,1.80000,1.20000
,,,-0.38935998082,1.80000,1.20000
,,,-0.38927999139,1.80000,1.20000
,,,-0.38920000196,1.80000,1.60000
,,,-0.38911998272,1.80000,1.20000
,,,-0.38903999329,1.80000,1.00000
,,,-0.38896000385,1.60000,1.00000
,,,-0.38887998462,1.60000,1.60000
,,,-0.38879999518,1.60000,1.00000
,,,-0.38871997595,1.60000,1.00000
,,,-0.38863998652,1.80000,1.00000
,,,-0.38855999708,1.40000,1.20000
,,,-0.38847997785,1.60000,1.20000
,,,-0.38839998841,1.40000,1.20000
,,,-0.38831999898,1.60000,1.00000
,,,-0.38823997974,1.40000,1.00000
,,,-0.38815999031,1.40000,1.60000
,,,-0.38808000088,1.40000,1.20000
,,,-0.38799998164,1.40000,1.20000
,,,-0.38791999221,1.20000,1.00000
,,,-0.38784000278,1.20000,1.60000
,,,-0.38775998354,1.20000,1.00000
,,,-0.38767999411,1.20000,1.00000
,,,-0.38760000467,1.00000,1.20000
,,,-0.38751998544,1.00000,1.20000
,,,-0.38743999600,1.20000,1.00000
,,,-0.38735997677,1.20000,1.00000
,,,-0.38727998734,1.20000,1.00000
,,,-0.38719999790,1.00000,0.80000
,,,-0.38711997867,1.00000,1.00000
,,,-0.38703998923,0.80000,0.80000
,,,-0.38695999980,1.20000,1.00000
,,,-0.38687998056,1.00000,0.80000
,,,-0.38679999113,1.00000,1.00000
,,,-0.38672000170,0.60000,1.00000
,,,-0.38663998246,1.00000,0.60000
,,,-0.38655999303,0.80000,0.80000
,,,-0.38648000360,0.60000,0.60000
,,,-0.38639998436,1.00000,0.80000
,,,-0.38631999493,0.60000,0.60000
,,,-0.38623997569,0.40000,0.60000
,,,-0.38615998626,0.40000,0.60000
,,,-0.38607999682,0.40000,0.40000
,,,-0.38599997759,0.40000,0.60000
,,,-0.38591998816,0.40000,0.40000
,,,-0.38583999872,0.20000,0.40000
,,,-0.38575997949,0.40000,0.20000
,,,-0.38567999005,0.40000,0.40000
,,,-0.38560000062,0.40000,0.20000
,,,-0.38551998138,0.60000,0.20000
,,,-0.38543999195,0.20000,0.20000
,,,-0.38536000252,0.20000,0.20000
,,,-0.38527998328,0.00,0.20000
,,,-0.38519999385,0.40000,0.20000
,,,-0.38512000442,0.20000,0.00
,,,-0.38503998518,0.00,0.20000
,,,-0.38495999575,0.00,0.20000
,,,-0.38487997651,-0.40000,0.00
,,,-0.38479998708,-0.40000,-0.20000
,,,-0.38471999764,-0.40000,-0.20000
,,,-0.38463997841,-0.20000,-0.20000
,,,-0.38455998898,-0.40000,0.00
,,,-0.38447999954,-0.40000,-0.20000
,,,-0.38439998031,-0.40000,-0.40000
,,,-0.38431999087,-0.40000,-0.40000
,,,-0.38424000144,-0.40000,-0.60000
,,,-0.38415998220,-0.60000,-0.40000
,,,-0.38407999277,-0.60000,-0.60000
,,,-0.38400000334,-0.60000,-0.40000
,,,-0.38391998410,-0.60000,-0.60000
,,,-0.38383999467,-0.60000,-0.60000
,,,-0.38375997543,-0.80000,-0.60000
,,,-0.38367998600,-0.80000,-0.80000
,,,-0.38359999657,-0.80000,-0.60000
,,,-0.38351997733,-1.00000,-1.00000
,,,-0.38343998790,-1.00000,-0.80000
,,,-0.38335999846,-1.00000,-0.80000
,,,-0.38327997923,-1.20000,-0.80000
,,,-0.38319998980,-1.00000,-0.80000
,,,-0.38312000036,-1.20000,-1.00000
,,,-0.38303998113,-1.20000,-0.80000
,,,-0.38295999169,-1.20000,-1.20000
,,,-0.38288000226,-1.20000,-1.20000
,,,-0.38279998302,-1.20000,-1.00000
,,,-0.38271999359,-1.40000,-1.00000
,,,-0.38264000416,-1.40000,-1.20000
,,,-0.38255998492,-1.40000,-1.20000
,,,-0.38247999549,-1.40000,-1.40000
,,,-0.38239997625,-1.60000,-1.20000
,,,-0.38231998682,-1.60000,-1.40000
,,,-0.38223999739,-1.60000,-1.40000
,,,-0.38215997815,-1.40000,-1.40000
,,,-0.38207998872,-1.80000,-1.40000
,,,-0.38199999928,-1.60000,-1.60000
,,,-0.38191998005,-1.60000,-1.80000
,,,-0.38183999062,-1.80000,-1.60000
,,,-0.38176000118,-1.80000,-1.80000
,,,-0.38167998195,-1.60000,-1.40000
,,,-0.38159999251,-1.40000,-1.60000
,,,-0.38152000308,-1.80000,-1.60000
,,,-0.38143998384,-1.60000,-1.80000
,,,-0.38135999441,-1.80000,-1.60000
,,,-0.38128000498,-1.80000,-1.80000
,,,-0.38119998574,-1.80000,-1.80000
,,,-0.38111999631,-2.00000,-1.80000
,,,-0.38103997707,-2.00000,-2.00000
,,,-0.38095998764,-1.80000,-1.80000
,,,-0.38087999821,-1.80000,-1.80000
,,,-0.38079997897,-1.80000,-2.00000
,,,-0.38071998954,-2.00000,-2.00000
,,,-0.38064000010,-1.80000,-2.20000
,,,-0.38055998087,-2.00000,-2.00000
,,,-0.38047999144,-2.00000,-2.00000
,,,-0.38040000200,-2.00000,-2.00000
,,,-0.38031998277,-2.00000,-2.20000
,,,-0.38023999333,-1.80000,-2.20000
,,,-0.38016000390,-1.80000,-2.20000
,,,-0.38007998466,-2.00000,-2.20000
,,,-0.37999999523,-1.80000,-2.20000
,,,-0.37991997600,-2.00000,-2.20000
,,,-0.37983998656,-2.00000,-2.20000
,,,-0.37975999713,-2.00000,-2.20000
,,,-0.37967997789,-2.00000,-2.20000
,,,-0.37959998846,-2.00000,-2.20000
,,,-0.37951999903,-2.00000,-2.20000
,,,-0.37943997979,-1.80000,-2.20000
,,,-0.37935999036,-2.00000,-2.20000
,,,-0.37928000093,-1.80000,-2.20000
,,,-0.37919998169,-1.80000,-2.40000
,,,-0.37911999226,-2.00000,-2.40000
,,,-0.37904000282,-2.00000,-2.20000
,,,-0.37895998359,-2.00000,-2.00000
,,,-0.37887999415,-1.80000,-2.20000
,,,-0.37880000472,-1.80000,-2.20000
,,,-0.37871998549,-1.80000,-2.20000
,,,-0.37863999605,-1.60000,-2.20000
,,,-0.37855997682,-1.80000,-2.20000
,,,-0.37847998738,-1.80000,-2.20000
,,,-0.37839999795,-1.60000,-2.20000
,,,-0.37831997871,-1.60000,-2.20000
,,,-0.37823998928,-1.60000,-2.20000
,,,-0.37815999985,-1.80000,-2.20000
,,,-0.37807998061,-1.60000,-2.20000
,,,-0.37799999118,-1.60000,-2.00000
,,,-0.37792000175,-1.60000,-2.00000
,,,-0.37783998251,-1.40000,-2.20000
,,,-0.37775999308,-1.40000,-2.00000
,,,-0.37768000364,-1.60000,-2.00000
,,,-0.37759998441,-1.40000,-1.80000
,,,-0.37751999497,-1.40000,-2.20000
,,,-0.37743997574,-1.40000,-2.00000
,,,-0.37735998631,-1.20000,-2.00000
,,,-0.37727999687,-1.20000,-2.00000
,,,-0.37719997764,-1.20000,-2.20000
,,,-0.37711998820,-1.20000,-1.80000
,,,-0.37703999877,-1.20000,-2.00000
,,,-0.37695997953,-1.00000,-1.80000
,,,-0.37687999010,-1.20000,-2.00000
,,,-0.37680000067,-1.00000,-1.80000
,,,-0.37671998143,-1.00000,-1.80000
,,,-0.37663999200,-1.00000,-1.40000
,,,-0.37656000257,-1.00000,-1.80000
,,,-0.37647998333,-1.00000,-1.60000
,,,-0.37639999390,-1.00000,-1.60000
,,,-0.37632000446,-0.80000,-1.40000
,,,-0.37623998523,-0.60000,-1.60000
,,,-0.37615999579,-1.00000,-1.60000
,,,-0.37607997656,-0.60000,-1.40000
,,,-0.37599998713,-0.40000,-1.40000
,,,-0.37591999769,-0.60000,-1.40000
,,,-0.37583997846,-0.60000,-1.40000
,,,-0.37575998902,-0.40000,-1.20000
,,,-0.37567999959,-0.60000,-1.40000
,,,-0.37559998035,-0.20000,-1.20000
,,,-0.37551999092,-0.40000,-1.40000
,,,-0.37544000149,-0.20000,-1.20000
,,,-0.37535998225,-0.20000,-1.40000
,,,-0.37527999282,-0.20000,-1.20000
,,,-0.37520000339,-0.20000,-1.20000
,,,-0.37511998415,-0.40000,-1.20000
,,,-0.37503999472,-0.20000,-1.20000
,,,-0.37496000528,0.00,-1.00000
,,,-0.37487998605,0.20000,-1.00000
,,,-0.37479999661,0.20000,-1.00000
,,,-0.37471997738,-0.20000,-1.00000
,,,-0.37463998795,0.40000,-1.00000
,,,-0.37455999851,0.20000,-0.80000
,,,-0.37447997928,0.40000,-0.60000
,,,-0.37439998984,0.40000,-0.80000
,,,-0.37432000041,0.40000,-0.80000
,,,-0.37423998117,0.40000,-0.60000
,,,-0.37415999174,0.40000,-0.60000
,,,-0.37408000231,0.40000,-0.60000
,,,-0.37399998307,0.40000,-0.60000
,,,-0.37391999364,0.60000,-0.40000
,,,-0.37384000421,0.40000,-0.60000
,,,-0.37375998497,0.60000,-0.40000
,,,-0.37367999554,0.40000,-0.40000
,,,-0.37359997630,0.80000,-0.20000
,,,-0.37351998687,0.60000,-0.20000
,,,-0.37343999743,0.80000,-0.20000
,,,-0.37335997820,1.00000,0.00
,,,-0.37327998877,1.00000,-0.20000
,,,-0.37319999933,0.80000,-0.20000
,,,-0.37311998010,1.00000,-0.20000
,,,-0.37303999066,1.00000,0.00
,,,-0.37296000123,1.00000,-0.20000
,,,-0.37287998199,1.00000,0.00
,,,-0.37279999256,1.20000,0.00
,,,-0.37272000313,1.00000,0.20000
,,,-0.37263998389,1.00000,0.40000
,,,-0.37255999446,1.20000,0.20000
,,,-0.37248000503,1.20000,0.20000
,,,-0.37239998579,1.20000,0.20000
,,,-0.37231999636,1.40000,0.40000
,,,-0.37223997712,1.40000,0.60000
,,,-0.37215998769,1.40000,0.40000
,,,-0.37207999825,1.40000,0.20000
,,,-0.37199997902,1.20000,0.60000
,,,-0.37191998959,1.40000,0.60000
,,,-0.37184000015,1.20000,0.80000
,,,-0.37175998092,1.40000,0.60000
,,,-0.37167999148,1.60000,0.60000
,,,-0.37160000205,1.40000,0.80000
,,,-0.37151998281,1.60000,0.60000
,,,-0.37143999338,1.60000,0.60000
,,,-0.37136000395,1.80000,0.60000
,,,-0.37127998471,1.80000,1.00000
,,,-0.37119999528,1.40000,0.80000
,,,-0.37111997604,1.80000,0.80000
,,,-0.37103998661,1.60000,1.00000
,,,-0.37095999718,1.60000,1.00000
,,,-0.37087997794,1.40000,0.80000
,,,-0.37079998851,1.80000,0.80000
,,,-0.37071999907,1.80000,1.00000
,,,-0.37063997984,1.80000,1.00000
,,,-0.37055999041,1.80000,1.00000
,,,-0.37048000097,1.80000,1.00000
,,,-0.37039998174,2.00000,1.00000
,,,-0.37031999230,1.80000,1.20000
,,,-0.37024000287,1.80000,1.20000
,,,-0.37015998363,1.80000,1.00000
,,,-0.37007999420,1.80000,1.00000
,,,-0.37000000477,1.60000,1.20000
,,,-0.36991998553,1.60000,1.20000
,,,-0.36983999610,2.00000,1.20000
,,,-0.36975997686,1.80000,1.00000
,,,-0.36967998743,1.60000,1.00000
,,,-0.36959999800,1.80000,1.00000
,,,-0.36951997876,1.80000,1.20000
,,,-0.36943998933,1.80000,1.60000
,,,-0.36935999990,1.60000,1.00000
,,,-0.36927998066,1.80000,1.00000
,,,-0.36919999123,1.80000,1.20000
,,,-0.36912000179,1.80000,1.00000
,,,-0.36903998256,1.60000,1.20000
,,,-0.36895999312,1.60000,1.20000
,,,-0.36888000369,1.80000,1.20000
,,,-0.36879998446,1.60000,1.20000
,,,-0.36871999502,1.40000,1.20000
,,,-0.36864000559,1.40000,1.20000
,,,-0.36855998635,1.60000,1.20000
,,,-0.36847999692,1.40000,1.20000
,,,-0.36839997768,1.40000,1.00000
,,,-0.36831998825,1.40000,1.20000
,,,-0.36823999882,1.40000,1.00000
,,,-0.36815997958,1.60000,1.00000
,,,-0.36807999015,1.40000,1.00000
,,,-0.36800000072,1.60000,1.20000
,,,-0.36791998148,1.20000,1.00000
,,,-0.36783999205,1.20000,1.20000
,,,-0.36776000261,1.40000,1.00000
,,,-0.36767998338,1.20000,1.00000
,,,-0.36759999394,1.00000,1.00000
,,,-0.36752000451,1.20000,1.00000
,,,-0.36743998528,1.20000,1.00000
,,,-0.36735999584,1.00000,1.00000
,,,-0.36727997661,1.00000,1.00000
,,,-0.36719998717,1.20000,1.00000
,,,-0.36711999774,1.00000,1.00000
,,,-0.36703997850,1.00000,0.80000
,,,-0.36695998907,0.60000,0.80000
,,,-0.36687999964,1.00000,0.80000
,,,-0.36679998040,0.80000,0.60000
,,,-0.36671999097,0.80000,0.80000
,,,-0.36664000154,0.80000,0.80000
,,,-0.36655998230,0.80000,0.60000
,,,-0.36647999287,0.60000,0.80000
,,,-0.36640000343,0.60000,0.80000
,,,-0.36631998420,0.60000,0.80000
,,,-0.36623999476,1.00000,0.40000
,,,-0.36616000533,0.60000,0.60000
,,,-0.36607998610,0.60000,0.40000
,,,-0.36599999666,0.60000,0.40000
,,,-0.36591997743,0.40000,0.40000
,,,-0.36583998799,0.60000,0.40000
,,,-0.36575999856,0.20000,0.60000
,,,-0.36567997932,0.40000,0.40000
,,,-0.36559998989,0.40000,0.20000
,,,-0.36552000046,0.20000,0.40000
,,,-0.36543998122,0.20000,0.40000
,,,-0.36535999179,-0.20000,0.20000
,,,-0.36528000236,0.20000,0.20000
,,,-0.36519998312,-0.20000,0.20000
,,,-0.36511999369,-0.20000,-0.20000
,,,-0.36504000425,-0.20000,0.20000
,,,-0.36495998502,-0.40000,0.20000
,,,-0.36487999558,-0.40000,0.00
,,,-0.36479997635,-0.20000,0.00
,,,-0.36471998692,-0.40000,-0.20000
,,,-0.36463999748,-0.20000,-0.20000
,,,-0.36455997825,-0.40000,-0.20000
,,,-0.36447998881,-0.60000,-0.20000
,,,-0.36439999938,-0.40000,-0.20000
,,,-0.36431998014,-0.40000,-0.60000
,,,-0.36423999071,-0.60000,-0.40000
,,,-0.36416000128,-0.60000,-0.60000
,,,-0.36407998204,-0.80000,-0.60000
,,,-0.36399999261,-0.60000,-0.60000
,,,-0.36392000318,-0.80000,-0.60000
,,,-0.36383998394,-1.00000,-0.60000
,,,-0.36375999451,-0.80000,-0.60000
,,,-0.36368000507,-1.00000,-0.80000
,,,-0.36359998584,-1.20000,-0.60000
,,,-0.36351999640,-0.80000,-0.80000
,,,-0.36343997717,-1.00000,-1.00000
,,,-0.36335998774,-1.20000,-1.00000
,,,-0.36327999830,-1.00000,-1.00000
,,,-0.36319997907,-1.00000,-1.00000
,,,-0.36311998963,-1.20000,-1.00000
,,,-0.36304000020,-1.20000,-0.80000
,,,-0.36295998096,-1.40000,-1.00000
,,,-0.36287999153,-1.40000,-1.00000
,,,-0.36280000210,-1.20000,-1.00000
,,,-0.36271998286,-1.40000,-1.40000
,,,-0.36263999343,-1.40000,-1.20000
,,,-0.36256000400,-1.40000,-1.40000
,,,-0.36247998476,-1.40000,-1.20000
,,,-0.36239999533,-1.60000,-1.40000
,,,-0.36231997609,-1.40000,-1.40000
,,,-0.36223998666,-1.60000,-1.40000
,,,-0.36215999722,-1.80000,-1.40000
,,,-0.36207997799,-1.40000,-1.40000
,,,-0.36199998856,-1.60000,-1.40000
,,,-0.36191999912,-1.60000,-1.60000
,,,-0.36183997989,-1.80000,-1.60000
,,,-0.36175999045,-1.80000,-1.60000
,,,-0.36168000102,-1.80000,-1.60000
,,,-0.36159998178,-1.80000,-1.80000
,,,-0.36151999235,-2.00000,-1.60000
,,,-0.36144000292,-1.80000,-1.80000
,,,-0.36135998368,-1.80000,-1.80000
,,,-0.36127999425,-1.60000,-1.80000
,,,-0.36120000482,-1.80000,-1.80000
,,,-0.36111998558,-2.00000,-2.00000
,,,-0.36103999615,-1.80000,-2.00000
,,,-0.36095997691,-1.80000,-1.80000
,,,-0.36087998748,-1.80000,-2.00000
,,,-0.36079999804,-2.20000,-2.00000
,,,-0.36071997881,-2.00000,-2.20000
,,,-0.36063998938,-2.00000,-2.00000
,,,-0.36055999994,-2.00000,-2.00000
,,,-0.36047998071,-2.00000,-2.20000
,,,-0.36039999127,-2.00000,-2.00000
,,,-0.36032000184,-1.80000,-2.20000
,,,-0.36023998260,-2.00000,-2.00000
,,,-0.36015999317,-1.80000,-2.20000
,,,-0.36008000374,-2.00000,-2.20000
,,,-0.35999998450,-2.00000,-2.20000
,,,-0.35991999507,-2.00000,-2.20000
,,,-0.35984000564,-2.20000,-2.20000
,,,-0.35975998640,-1.80000,-2.00000
,,,-0.35967999697,-2.00000,-2.20000
,,,-0.35959997773,-2.00000,-2.20000
,,,-0.35951998830,-1.80000,-2.20000
,,,-0.35943999887,-2.00000,-2.20000
,,,-0.35935997963,-2.00000,-2.20000
,,,-0.35927999020,-1.60000,-2.20000
,,,-0.35920000076,-2.00000,-2.20000
,,,-0.35911998153,-1.80000,-2.20000
,,,-0.35903999209,-2.00000,-2.20000
,,,-0.35896000266,-2.00000,-2.20000
,,,-0.35887998343,-1.80000,-2.20000
,,,-0.35879999399,-2.00000,-2.00000
,,,-0.35872000456,-1.80000,-2.20000
,,,-0.35863998532,-1.80000,-2.20000
,,,-0.35855999589,-2.00000,-2.20000
,,,-0.35847997665,-1.60000,-2.20000
,,,-0.35839998722,-1.80000,-2.20000
,,,-0.35831999779,-1.60000,-2.20000
,,,-0.35823997855,-1.60000,-2.20000
,,,-0.35815998912,-1.80000,-2.20000
,,,-0.35807999969,-1.40000,-2.20000
,,,-0.35799998045,-1.40000,-2.00000
,,,-0.35791999102,-1.60000,-2.20000
,,,-0.35784000158,-1.40000,-2.00000
,,,-0.35775998235,-1.40000,-2.20000
,,,-0.35767999291,-1.40000,-2.20000
,,,-0.35760000348,-1.40000,-2.20000
,,,-0.35751998425,-1.40000,-2.20000
,,,-0.35743999481,-1.40000,-1.80000
,,,-0.35736000538,-1.40000,-2.00000
,,,-0.35727998614,-1.20000,-1.80000
,,,-0.35719999671,-1.20000,-1.80000
,,,-0.35711997747,-1.20000,-2.20000
,,,-0.35703998804,-1.20000,-2.00000
,,,-0.35695999861,-1.20000,-2.00000
,,,-0.35687997937,-1.00000,-1.80000
,,,-0.35679998994,-1.00000,-2.00000
,,,-0.35672000051,-0.80000,-1.80000
,,,-0.35663998127,-1.00000,-1.80000
,,,-0.35655999184,-1.00000,-1.80000
,,,-0.35648000240,-1.00000,-1.80000
,,,-0.35639998317,-0.80000,-1.80000
,,,-0.35631999373,-0.60000,-1.60000
,,,-0.35624000430,-0.60000,-1.60000
,,,-0.35615998507,-0.80000,-1.60000
,,,-0.35607999563,-0.80000,-1.40000
,,,-0.35599997640,-0.40000,-1.40000
,,,-0.35591998696,-0.40000,-1.60000
,,,-0.35583999753,-0.60000,-1.40000
,,,-0.35575997829,-0.60000,-1.20000
,,,-0.35567998886,-0.20000,-1.40000
,,,-0.35559999943,-0.40000,-1.40000
,,,-0.35551998019,-0.40000,-1.40000
,,,-0.35543999076,-0.40000,-1.40000
,,,-0.35536000133,-0.20000,-1.20000
,,,-0.35527998209,0.00,-1.20000
